﻿-d:RELEASE
-d:TRACE
-d:NET46
-nowarn:CS1701
-nowarn:CS1702
-nowarn:CS1705
-optimize
-t:library
-debug:full
-nostdlib
-nologo
"C:\Development\GoGaWi\PlatformCore\PlatformCore.DAL.Common\obj\Release\net46\dotnet-compile.assemblyinfo.cs"
-out:"C:\Development\GoGaWi\PlatformCore\PlatformCore.DAL.Common\bin\Release\net46\PlatformCore.DAL.Common.dll"
-r:"C:\Users\Admin\.nuget\packages\Microsoft.Extensions.Caching.Abstractions\1.0.0\lib\netstandard1.0\Microsoft.Extensions.Caching.Abstractions.dll"
-r:"C:\Users\Admin\.nuget\packages\Microsoft.Extensions.Caching.Redis.Core\1.0.3\lib\net451\Microsoft.Extensions.Caching.Redis.dll"
-r:"C:\Users\Admin\.nuget\packages\Microsoft.Extensions.DependencyInjection.Abstractions\1.0.0\lib\netstandard1.0\Microsoft.Extensions.DependencyInjection.Abstractions.dll"
-r:"C:\Users\Admin\.nuget\packages\Microsoft.Extensions.Options\1.0.0\lib\netstandard1.0\Microsoft.Extensions.Options.dll"
-r:"C:\Users\Admin\.nuget\packages\Microsoft.Extensions.Primitives\1.0.0\lib\netstandard1.0\Microsoft.Extensions.Primitives.dll"
-r:"C:\Users\Admin\.nuget\packages\Microsoft.Win32.Primitives\4.0.1\ref\net46\Microsoft.Win32.Primitives.dll"
-r:"C:\Users\Admin\.nuget\packages\StackExchange.Redis.StrongName\1.1.608\lib\net46\StackExchange.Redis.StrongName.dll"
-r:"C:\Users\Admin\.nuget\packages\System.AppContext\4.1.0\ref\net46\System.AppContext.dll"
-r:"C:\Program Files (x86)\Reference Assemblies\Microsoft\Framework\.NETFramework\v4.6\Facades\System.Collections.dll"
-r:"C:\Program Files (x86)\Reference Assemblies\Microsoft\Framework\.NETFramework\v4.6\Facades\System.Collections.Concurrent.dll"
-r:"C:\Program Files (x86)\Reference Assemblies\Microsoft\Framework\.NETFramework\v4.6\Facades\System.ComponentModel.dll"
-r:"C:\Users\Admin\.nuget\packages\System.Console\4.0.0\ref\net46\System.Console.dll"
-r:"C:\Program Files (x86)\Reference Assemblies\Microsoft\Framework\.NETFramework\v4.6\Facades\System.Diagnostics.Debug.dll"
-r:"C:\Program Files (x86)\Reference Assemblies\Microsoft\Framework\.NETFramework\v4.6\Facades\System.Diagnostics.Tools.dll"
-r:"C:\Program Files (x86)\Reference Assemblies\Microsoft\Framework\.NETFramework\v4.6\Facades\System.Diagnostics.Tracing.dll"
-r:"C:\Program Files (x86)\Reference Assemblies\Microsoft\Framework\.NETFramework\v4.6\Facades\System.Globalization.dll"
-r:"C:\Users\Admin\.nuget\packages\System.Globalization.Calendars\4.0.1\ref\net46\System.Globalization.Calendars.dll"
-r:"C:\Program Files (x86)\Reference Assemblies\Microsoft\Framework\.NETFramework\v4.6\Facades\System.IO.dll"
-r:"C:\Users\Admin\.nuget\packages\System.IO.Compression.ZipFile\4.0.1\ref\net46\System.IO.Compression.ZipFile.dll"
-r:"C:\Users\Admin\.nuget\packages\System.IO.FileSystem\4.0.1\ref\net46\System.IO.FileSystem.dll"
-r:"C:\Users\Admin\.nuget\packages\System.IO.FileSystem.Primitives\4.0.1\ref\net46\System.IO.FileSystem.Primitives.dll"
-r:"C:\Program Files (x86)\Reference Assemblies\Microsoft\Framework\.NETFramework\v4.6\Facades\System.Linq.dll"
-r:"C:\Program Files (x86)\Reference Assemblies\Microsoft\Framework\.NETFramework\v4.6\Facades\System.Linq.Expressions.dll"
-r:"C:\Program Files (x86)\Reference Assemblies\Microsoft\Framework\.NETFramework\v4.6\Facades\System.Net.Primitives.dll"
-r:"C:\Users\Admin\.nuget\packages\System.Net.Sockets\4.1.0\ref\net46\System.Net.Sockets.dll"
-r:"C:\Program Files (x86)\Reference Assemblies\Microsoft\Framework\.NETFramework\v4.6\Facades\System.ObjectModel.dll"
-r:"C:\Program Files (x86)\Reference Assemblies\Microsoft\Framework\.NETFramework\v4.6\Facades\System.Reflection.dll"
-r:"C:\Program Files (x86)\Reference Assemblies\Microsoft\Framework\.NETFramework\v4.6\Facades\System.Reflection.Extensions.dll"
-r:"C:\Program Files (x86)\Reference Assemblies\Microsoft\Framework\.NETFramework\v4.6\Facades\System.Reflection.Primitives.dll"
-r:"C:\Program Files (x86)\Reference Assemblies\Microsoft\Framework\.NETFramework\v4.6\Facades\System.Resources.ResourceManager.dll"
-r:"C:\Program Files (x86)\Reference Assemblies\Microsoft\Framework\.NETFramework\v4.6\Facades\System.Runtime.dll"
-r:"C:\Program Files (x86)\Reference Assemblies\Microsoft\Framework\.NETFramework\v4.6\Facades\System.Runtime.Extensions.dll"
-r:"C:\Program Files (x86)\Reference Assemblies\Microsoft\Framework\.NETFramework\v4.6\Facades\System.Runtime.Handles.dll"
-r:"C:\Program Files (x86)\Reference Assemblies\Microsoft\Framework\.NETFramework\v4.6\Facades\System.Runtime.InteropServices.dll"
-r:"C:\Users\Admin\.nuget\packages\System.Runtime.InteropServices.RuntimeInformation\4.0.0\ref\netstandard1.1\System.Runtime.InteropServices.RuntimeInformation.dll"
-r:"C:\Program Files (x86)\Reference Assemblies\Microsoft\Framework\.NETFramework\v4.6\Facades\System.Runtime.Numerics.dll"
-r:"C:\Users\Admin\.nuget\packages\System.Security.Cryptography.Algorithms\4.2.0\ref\net46\System.Security.Cryptography.Algorithms.dll"
-r:"C:\Users\Admin\.nuget\packages\System.Security.Cryptography.Encoding\4.0.0\ref\net46\System.Security.Cryptography.Encoding.dll"
-r:"C:\Users\Admin\.nuget\packages\System.Security.Cryptography.Primitives\4.0.0\ref\net46\System.Security.Cryptography.Primitives.dll"
-r:"C:\Users\Admin\.nuget\packages\System.Security.Cryptography.X509Certificates\4.1.0\ref\net46\System.Security.Cryptography.X509Certificates.dll"
-r:"C:\Program Files (x86)\Reference Assemblies\Microsoft\Framework\.NETFramework\v4.6\Facades\System.Text.Encoding.dll"
-r:"C:\Program Files (x86)\Reference Assemblies\Microsoft\Framework\.NETFramework\v4.6\Facades\System.Text.Encoding.Extensions.dll"
-r:"C:\Program Files (x86)\Reference Assemblies\Microsoft\Framework\.NETFramework\v4.6\Facades\System.Text.RegularExpressions.dll"
-r:"C:\Program Files (x86)\Reference Assemblies\Microsoft\Framework\.NETFramework\v4.6\Facades\System.Threading.dll"
-r:"C:\Program Files (x86)\Reference Assemblies\Microsoft\Framework\.NETFramework\v4.6\Facades\System.Threading.Tasks.dll"
-r:"C:\Program Files (x86)\Reference Assemblies\Microsoft\Framework\.NETFramework\v4.6\Facades\System.Threading.Timer.dll"
-r:"C:\Program Files (x86)\Reference Assemblies\Microsoft\Framework\.NETFramework\v4.6\Facades\System.Xml.ReaderWriter.dll"
-r:"C:\Program Files (x86)\Reference Assemblies\Microsoft\Framework\.NETFramework\v4.6\Facades\System.Xml.XDocument.dll"
-r:"C:\Program Files (x86)\Reference Assemblies\Microsoft\Framework\.NETFramework\v4.6\mscorlib.dll"
-r:"C:\Program Files (x86)\Reference Assemblies\Microsoft\Framework\.NETFramework\v4.6\System.dll"
-r:"C:\Program Files (x86)\Reference Assemblies\Microsoft\Framework\.NETFramework\v4.6\System.Core.dll"
-r:"C:\Program Files (x86)\Reference Assemblies\Microsoft\Framework\.NETFramework\v4.6\Microsoft.CSharp.dll"
-r:"C:\Program Files (x86)\Reference Assemblies\Microsoft\Framework\.NETFramework\v4.6\System.IO.Compression.dll"
-r:"C:\Program Files (x86)\Reference Assemblies\Microsoft\Framework\.NETFramework\v4.6\System.IO.Compression.FileSystem.dll"
-r:"C:\Program Files (x86)\Reference Assemblies\Microsoft\Framework\.NETFramework\v4.6\System.Net.Http.dll"
"C:\Development\GoGaWi\PlatformCore\PlatformCore.DAL.Common\RedisCacheCustom.cs"
"C:\Development\GoGaWi\PlatformCore\PlatformCore.DAL.Common\CacheService\CacheService.cs"
"C:\Development\GoGaWi\PlatformCore\PlatformCore.DAL.Common\CacheService\IСacheService.cs"
"C:\Development\GoGaWi\PlatformCore\PlatformCore.DAL.Common\Properties\AssemblyInfo.cs"
