﻿-d:DEBUG
-d:TRACE
-d:NET46
-nowarn:CS1701
-nowarn:CS1702
-nowarn:CS1705
-t:library
-debug:full
-nostdlib
-nologo
"C:\Development\Nikita\must4u\PlatformCore.Application.Common\obj\Debug\net46\dotnet-compile.assemblyinfo.cs"
-out:"C:\Development\Nikita\must4u\PlatformCore.Application.Common\bin\Debug\net46\PlatformCore.Application.Common.dll"
-r:"C:\Users\Admin\.nuget\packages\BouncyCastle\1.8.1\lib\BouncyCastle.Crypto.dll"
-r:"C:\Users\Admin\.nuget\packages\MailKit\1.10.0\lib\net451\MailKit.dll"
-r:"C:\Users\Admin\.nuget\packages\Microsoft.AspNet.WebApi.Client\5.2.3\lib\net45\System.Net.Http.Formatting.dll"
-r:"C:\Users\Admin\.nuget\packages\Microsoft.AspNetCore.Antiforgery\1.0.1\lib\net451\Microsoft.AspNetCore.Antiforgery.dll"
-r:"C:\Users\Admin\.nuget\packages\Microsoft.AspNetCore.Authorization\1.0.0\lib\net451\Microsoft.AspNetCore.Authorization.dll"
-r:"C:\Users\Admin\.nuget\packages\Microsoft.AspNetCore.Cors\1.0.0\lib\net451\Microsoft.AspNetCore.Cors.dll"
-r:"C:\Users\Admin\.nuget\packages\Microsoft.AspNetCore.Cryptography.Internal\1.0.0\lib\net451\Microsoft.AspNetCore.Cryptography.Internal.dll"
-r:"C:\Users\Admin\.nuget\packages\Microsoft.AspNetCore.DataProtection\1.0.0\lib\net451\Microsoft.AspNetCore.DataProtection.dll"
-r:"C:\Users\Admin\.nuget\packages\Microsoft.AspNetCore.DataProtection.Abstractions\1.0.0\lib\net451\Microsoft.AspNetCore.DataProtection.Abstractions.dll"
-r:"C:\Users\Admin\.nuget\packages\Microsoft.AspNetCore.Diagnostics.Abstractions\1.0.0\lib\netstandard1.0\Microsoft.AspNetCore.Diagnostics.Abstractions.dll"
-r:"C:\Users\Admin\.nuget\packages\Microsoft.AspNetCore.Hosting.Abstractions\1.0.0\lib\net451\Microsoft.AspNetCore.Hosting.Abstractions.dll"
-r:"C:\Users\Admin\.nuget\packages\Microsoft.AspNetCore.Hosting.Server.Abstractions\1.0.0\lib\net451\Microsoft.AspNetCore.Hosting.Server.Abstractions.dll"
-r:"C:\Users\Admin\.nuget\packages\Microsoft.AspNetCore.Html.Abstractions\1.0.0\lib\netstandard1.0\Microsoft.AspNetCore.Html.Abstractions.dll"
-r:"C:\Users\Admin\.nuget\packages\Microsoft.AspNetCore.Http\1.1.0\lib\net451\Microsoft.AspNetCore.Http.dll"
-r:"C:\Users\Admin\.nuget\packages\Microsoft.AspNetCore.Http.Abstractions\1.1.0\lib\net451\Microsoft.AspNetCore.Http.Abstractions.dll"
-r:"C:\Users\Admin\.nuget\packages\Microsoft.AspNetCore.Http.Extensions\1.0.0\lib\net451\Microsoft.AspNetCore.Http.Extensions.dll"
-r:"C:\Users\Admin\.nuget\packages\Microsoft.AspNetCore.Http.Features\1.1.0\lib\net451\Microsoft.AspNetCore.Http.Features.dll"
-r:"C:\Users\Admin\.nuget\packages\Microsoft.AspNetCore.JsonPatch\1.0.0\lib\netstandard1.1\Microsoft.AspNetCore.JsonPatch.dll"
-r:"C:\Users\Admin\.nuget\packages\Microsoft.AspNetCore.Localization\1.0.0\lib\net451\Microsoft.AspNetCore.Localization.dll"
-r:"C:\Users\Admin\.nuget\packages\Microsoft.AspNetCore.Mvc\1.0.1\lib\net451\Microsoft.AspNetCore.Mvc.dll"
-r:"C:\Users\Admin\.nuget\packages\Microsoft.AspNetCore.Mvc.Abstractions\1.0.1\lib\net451\Microsoft.AspNetCore.Mvc.Abstractions.dll"
-r:"C:\Users\Admin\.nuget\packages\Microsoft.AspNetCore.Mvc.ApiExplorer\1.0.1\lib\net451\Microsoft.AspNetCore.Mvc.ApiExplorer.dll"
-r:"C:\Users\Admin\.nuget\packages\Microsoft.AspNetCore.Mvc.Core\1.0.1\lib\net451\Microsoft.AspNetCore.Mvc.Core.dll"
-r:"C:\Users\Admin\.nuget\packages\Microsoft.AspNetCore.Mvc.Cors\1.0.1\lib\net451\Microsoft.AspNetCore.Mvc.Cors.dll"
-r:"C:\Users\Admin\.nuget\packages\Microsoft.AspNetCore.Mvc.DataAnnotations\1.0.1\lib\net451\Microsoft.AspNetCore.Mvc.DataAnnotations.dll"
-r:"C:\Users\Admin\.nuget\packages\Microsoft.AspNetCore.Mvc.Formatters.Json\1.0.1\lib\net451\Microsoft.AspNetCore.Mvc.Formatters.Json.dll"
-r:"C:\Users\Admin\.nuget\packages\Microsoft.AspNetCore.Mvc.Localization\1.0.1\lib\net451\Microsoft.AspNetCore.Mvc.Localization.dll"
-r:"C:\Users\Admin\.nuget\packages\Microsoft.AspNetCore.Mvc.Razor\1.0.1\lib\net451\Microsoft.AspNetCore.Mvc.Razor.dll"
-r:"C:\Users\Admin\.nuget\packages\Microsoft.AspNetCore.Mvc.Razor.Host\1.0.1\lib\net451\Microsoft.AspNetCore.Mvc.Razor.Host.dll"
-r:"C:\Users\Admin\.nuget\packages\Microsoft.AspNetCore.Mvc.TagHelpers\1.0.1\lib\net451\Microsoft.AspNetCore.Mvc.TagHelpers.dll"
-r:"C:\Users\Admin\.nuget\packages\Microsoft.AspNetCore.Mvc.ViewFeatures\1.0.1\lib\net451\Microsoft.AspNetCore.Mvc.ViewFeatures.dll"
-r:"C:\Users\Admin\.nuget\packages\Microsoft.AspNetCore.Razor\1.0.0\lib\net451\Microsoft.AspNetCore.Razor.dll"
-r:"C:\Users\Admin\.nuget\packages\Microsoft.AspNetCore.Razor.Runtime\1.0.0\lib\net451\Microsoft.AspNetCore.Razor.Runtime.dll"
-r:"C:\Users\Admin\.nuget\packages\Microsoft.AspNetCore.Routing\1.0.0\lib\net451\Microsoft.AspNetCore.Routing.dll"
-r:"C:\Users\Admin\.nuget\packages\Microsoft.AspNetCore.Routing.Abstractions\1.0.0\lib\net451\Microsoft.AspNetCore.Routing.Abstractions.dll"
-r:"C:\Users\Admin\.nuget\packages\Microsoft.AspNetCore.WebUtilities\1.1.0\lib\net451\Microsoft.AspNetCore.WebUtilities.dll"
-r:"C:\Users\Admin\.nuget\packages\Microsoft.CodeAnalysis.Common\1.3.0\lib\net45\Microsoft.CodeAnalysis.dll"
-r:"C:\Users\Admin\.nuget\packages\Microsoft.CodeAnalysis.CSharp\1.3.0\lib\net45\Microsoft.CodeAnalysis.CSharp.dll"
-r:"C:\Program Files (x86)\Reference Assemblies\Microsoft\Framework\.NETFramework\v4.6\Microsoft.CSharp.dll"
-r:"C:\Users\Admin\.nuget\packages\Microsoft.DotNet.InternalAbstractions\1.0.0\lib\net451\Microsoft.DotNet.InternalAbstractions.dll"
-r:"C:\Users\Admin\.nuget\packages\Microsoft.Extensions.Caching.Abstractions\1.0.0\lib\netstandard1.0\Microsoft.Extensions.Caching.Abstractions.dll"
-r:"C:\Users\Admin\.nuget\packages\Microsoft.Extensions.Caching.Memory\1.0.0\lib\net451\Microsoft.Extensions.Caching.Memory.dll"
-r:"C:\Users\Admin\.nuget\packages\Microsoft.Extensions.Caching.Redis.Core\1.0.3\lib\net451\Microsoft.Extensions.Caching.Redis.dll"
-r:"C:\Users\Admin\.nuget\packages\Microsoft.Extensions.Configuration.Abstractions\1.0.0\lib\netstandard1.0\Microsoft.Extensions.Configuration.Abstractions.dll"
-r:"C:\Users\Admin\.nuget\packages\Microsoft.Extensions.DependencyInjection\1.0.0\lib\netstandard1.1\Microsoft.Extensions.DependencyInjection.dll"
-r:"C:\Users\Admin\.nuget\packages\Microsoft.Extensions.DependencyInjection.Abstractions\1.1.0\lib\netstandard1.0\Microsoft.Extensions.DependencyInjection.Abstractions.dll"
-r:"C:\Users\Admin\.nuget\packages\Microsoft.Extensions.DependencyModel\1.0.0\lib\net451\Microsoft.Extensions.DependencyModel.dll"
-r:"C:\Users\Admin\.nuget\packages\Microsoft.Extensions.FileProviders.Abstractions\1.0.0\lib\netstandard1.0\Microsoft.Extensions.FileProviders.Abstractions.dll"
-r:"C:\Users\Admin\.nuget\packages\Microsoft.Extensions.FileProviders.Composite\1.0.0\lib\netstandard1.0\Microsoft.Extensions.FileProviders.Composite.dll"
-r:"C:\Users\Admin\.nuget\packages\Microsoft.Extensions.FileProviders.Physical\1.0.0\lib\net451\Microsoft.Extensions.FileProviders.Physical.dll"
-r:"C:\Users\Admin\.nuget\packages\Microsoft.Extensions.FileSystemGlobbing\1.0.0\lib\net451\Microsoft.Extensions.FileSystemGlobbing.dll"
-r:"C:\Users\Admin\.nuget\packages\Microsoft.Extensions.Globalization.CultureInfoCache\1.0.0\lib\netstandard1.1\Microsoft.Extensions.Globalization.CultureInfoCache.dll"
-r:"C:\Users\Admin\.nuget\packages\Microsoft.Extensions.Localization\1.0.0\lib\net451\Microsoft.Extensions.Localization.dll"
-r:"C:\Users\Admin\.nuget\packages\Microsoft.Extensions.Localization.Abstractions\1.0.0\lib\netstandard1.0\Microsoft.Extensions.Localization.Abstractions.dll"
-r:"C:\Users\Admin\.nuget\packages\Microsoft.Extensions.Logging.Abstractions\1.0.0\lib\netstandard1.1\Microsoft.Extensions.Logging.Abstractions.dll"
-r:"C:\Users\Admin\.nuget\packages\Microsoft.Extensions.ObjectPool\1.1.0\lib\net451\Microsoft.Extensions.ObjectPool.dll"
-r:"C:\Users\Admin\.nuget\packages\Microsoft.Extensions.Options\1.1.0\lib\netstandard1.0\Microsoft.Extensions.Options.dll"
-r:"C:\Users\Admin\.nuget\packages\Microsoft.Extensions.PlatformAbstractions\1.0.0\lib\net451\Microsoft.Extensions.PlatformAbstractions.dll"
-r:"C:\Users\Admin\.nuget\packages\Microsoft.Extensions.Primitives\1.1.0\lib\netstandard1.0\Microsoft.Extensions.Primitives.dll"
-r:"C:\Users\Admin\.nuget\packages\Microsoft.Extensions.WebEncoders\1.0.0\lib\netstandard1.0\Microsoft.Extensions.WebEncoders.dll"
-r:"C:\Users\Admin\.nuget\packages\Microsoft.Net.Http.Headers\1.1.0\lib\netstandard1.1\Microsoft.Net.Http.Headers.dll"
-r:"C:\Users\Admin\.nuget\packages\Microsoft.Win32.Primitives\4.0.1\ref\net46\Microsoft.Win32.Primitives.dll"
-r:"C:\Users\Admin\.nuget\packages\MimeKit\1.10.0\lib\net451\MimeKit.dll"
-r:"C:\Users\Admin\.nuget\packages\Newtonsoft.Json\9.0.1\lib\net45\Newtonsoft.Json.dll"
-r:"C:\Users\Admin\.nuget\packages\StackExchange.Redis.StrongName\1.1.608\lib\net46\StackExchange.Redis.StrongName.dll"
-r:"C:\Users\Admin\.nuget\packages\System.AppContext\4.1.0\ref\net46\System.AppContext.dll"
-r:"C:\Users\Admin\.nuget\packages\System.Buffers\4.3.0\lib\netstandard1.1\System.Buffers.dll"
-r:"C:\Program Files (x86)\Reference Assemblies\Microsoft\Framework\.NETFramework\v4.6\Facades\System.Collections.dll"
-r:"C:\Program Files (x86)\Reference Assemblies\Microsoft\Framework\.NETFramework\v4.6\Facades\System.Collections.Concurrent.dll"
-r:"C:\Users\Admin\.nuget\packages\System.Collections.Immutable\1.2.0\lib\portable-net45+win8+wp8+wpa81\System.Collections.Immutable.dll"
-r:"C:\Program Files (x86)\Reference Assemblies\Microsoft\Framework\.NETFramework\v4.6\Facades\System.ComponentModel.dll"
-r:"C:\Users\Admin\.nuget\packages\System.ComponentModel.Primitives\4.1.0\ref\net45\System.ComponentModel.Primitives.dll"
-r:"C:\Users\Admin\.nuget\packages\System.ComponentModel.TypeConverter\4.1.0\ref\net45\System.ComponentModel.TypeConverter.dll"
-r:"C:\Users\Admin\.nuget\packages\System.Console\4.0.0\ref\net46\System.Console.dll"
-r:"C:\Program Files (x86)\Reference Assemblies\Microsoft\Framework\.NETFramework\v4.6\Facades\System.Diagnostics.Contracts.dll"
-r:"C:\Program Files (x86)\Reference Assemblies\Microsoft\Framework\.NETFramework\v4.6\Facades\System.Diagnostics.Debug.dll"
-r:"C:\Users\Admin\.nuget\packages\System.Diagnostics.DiagnosticSource\4.0.0\lib\net46\System.Diagnostics.DiagnosticSource.dll"
-r:"C:\Program Files (x86)\Reference Assemblies\Microsoft\Framework\.NETFramework\v4.6\Facades\System.Diagnostics.Tools.dll"
-r:"C:\Program Files (x86)\Reference Assemblies\Microsoft\Framework\.NETFramework\v4.6\Facades\System.Diagnostics.Tracing.dll"
-r:"C:\Program Files (x86)\Reference Assemblies\Microsoft\Framework\.NETFramework\v4.6\Facades\System.Dynamic.Runtime.dll"
-r:"C:\Program Files (x86)\Reference Assemblies\Microsoft\Framework\.NETFramework\v4.6\Facades\System.Globalization.dll"
-r:"C:\Users\Admin\.nuget\packages\System.Globalization.Calendars\4.0.1\ref\net46\System.Globalization.Calendars.dll"
-r:"C:\Program Files (x86)\Reference Assemblies\Microsoft\Framework\.NETFramework\v4.6\Facades\System.IO.dll"
-r:"C:\Users\Admin\.nuget\packages\System.IO.Compression.ZipFile\4.0.1\ref\net46\System.IO.Compression.ZipFile.dll"
-r:"C:\Users\Admin\.nuget\packages\System.IO.FileSystem\4.0.1\ref\net46\System.IO.FileSystem.dll"
-r:"C:\Users\Admin\.nuget\packages\System.IO.FileSystem.Primitives\4.0.1\ref\net46\System.IO.FileSystem.Primitives.dll"
-r:"C:\Program Files (x86)\Reference Assemblies\Microsoft\Framework\.NETFramework\v4.6\Facades\System.Linq.dll"
-r:"C:\Program Files (x86)\Reference Assemblies\Microsoft\Framework\.NETFramework\v4.6\Facades\System.Linq.Expressions.dll"
-r:"C:\Program Files (x86)\Reference Assemblies\Microsoft\Framework\.NETFramework\v4.6\Facades\System.Net.Primitives.dll"
-r:"C:\Users\Admin\.nuget\packages\System.Net.Sockets\4.1.0\ref\net46\System.Net.Sockets.dll"
-r:"C:\Program Files (x86)\Reference Assemblies\Microsoft\Framework\.NETFramework\v4.6\Facades\System.ObjectModel.dll"
-r:"C:\Program Files (x86)\Reference Assemblies\Microsoft\Framework\.NETFramework\v4.6\Facades\System.Reflection.dll"
-r:"C:\Program Files (x86)\Reference Assemblies\Microsoft\Framework\.NETFramework\v4.6\Facades\System.Reflection.Extensions.dll"
-r:"C:\Users\Admin\.nuget\packages\System.Reflection.Metadata\1.3.0\lib\portable-net45+win8\System.Reflection.Metadata.dll"
-r:"C:\Program Files (x86)\Reference Assemblies\Microsoft\Framework\.NETFramework\v4.6\Facades\System.Reflection.Primitives.dll"
-r:"C:\Program Files (x86)\Reference Assemblies\Microsoft\Framework\.NETFramework\v4.6\Facades\System.Resources.ResourceManager.dll"
-r:"C:\Program Files (x86)\Reference Assemblies\Microsoft\Framework\.NETFramework\v4.6\Facades\System.Runtime.dll"
-r:"C:\Users\Admin\.nuget\packages\System.Runtime.CompilerServices.Unsafe\4.3.0\lib\netstandard1.0\System.Runtime.CompilerServices.Unsafe.dll"
-r:"C:\Program Files (x86)\Reference Assemblies\Microsoft\Framework\.NETFramework\v4.6\Facades\System.Runtime.Extensions.dll"
-r:"C:\Program Files (x86)\Reference Assemblies\Microsoft\Framework\.NETFramework\v4.6\Facades\System.Runtime.Handles.dll"
-r:"C:\Program Files (x86)\Reference Assemblies\Microsoft\Framework\.NETFramework\v4.6\Facades\System.Runtime.InteropServices.dll"
-r:"C:\Users\Admin\.nuget\packages\System.Runtime.InteropServices.RuntimeInformation\4.0.0\ref\netstandard1.1\System.Runtime.InteropServices.RuntimeInformation.dll"
-r:"C:\Program Files (x86)\Reference Assemblies\Microsoft\Framework\.NETFramework\v4.6\Facades\System.Runtime.Numerics.dll"
-r:"C:\Users\Admin\.nuget\packages\System.Runtime.Serialization.Primitives\4.1.1\ref\net46\System.Runtime.Serialization.Primitives.dll"
-r:"C:\Users\Admin\.nuget\packages\System.Security.Cryptography.Algorithms\4.2.0\ref\net46\System.Security.Cryptography.Algorithms.dll"
-r:"C:\Users\Admin\.nuget\packages\System.Security.Cryptography.Encoding\4.0.0\ref\net46\System.Security.Cryptography.Encoding.dll"
-r:"C:\Users\Admin\.nuget\packages\System.Security.Cryptography.Primitives\4.0.0\ref\net46\System.Security.Cryptography.Primitives.dll"
-r:"C:\Users\Admin\.nuget\packages\System.Security.Cryptography.X509Certificates\4.1.0\ref\net46\System.Security.Cryptography.X509Certificates.dll"
-r:"C:\Program Files (x86)\Reference Assemblies\Microsoft\Framework\.NETFramework\v4.6\Facades\System.Text.Encoding.dll"
-r:"C:\Program Files (x86)\Reference Assemblies\Microsoft\Framework\.NETFramework\v4.6\Facades\System.Text.Encoding.Extensions.dll"
-r:"C:\Users\Admin\.nuget\packages\System.Text.Encodings.Web\4.3.0\lib\netstandard1.0\System.Text.Encodings.Web.dll"
-r:"C:\Program Files (x86)\Reference Assemblies\Microsoft\Framework\.NETFramework\v4.6\Facades\System.Text.RegularExpressions.dll"
-r:"C:\Program Files (x86)\Reference Assemblies\Microsoft\Framework\.NETFramework\v4.6\Facades\System.Threading.dll"
-r:"C:\Program Files (x86)\Reference Assemblies\Microsoft\Framework\.NETFramework\v4.6\Facades\System.Threading.Tasks.dll"
-r:"C:\Program Files (x86)\Reference Assemblies\Microsoft\Framework\.NETFramework\v4.6\Facades\System.Threading.Tasks.Parallel.dll"
-r:"C:\Program Files (x86)\Reference Assemblies\Microsoft\Framework\.NETFramework\v4.6\Facades\System.Threading.Timer.dll"
-r:"C:\Program Files (x86)\Reference Assemblies\Microsoft\Framework\.NETFramework\v4.6\Facades\System.Xml.ReaderWriter.dll"
-r:"C:\Program Files (x86)\Reference Assemblies\Microsoft\Framework\.NETFramework\v4.6\Facades\System.Xml.XDocument.dll"
-r:"C:\Development\Nikita\must4u\PlatformCore.DAL.Common\bin\Debug\net46\PlatformCore.DAL.Common.dll"
-r:"C:\Program Files (x86)\Reference Assemblies\Microsoft\Framework\.NETFramework\v4.6\mscorlib.dll"
-r:"C:\Program Files (x86)\Reference Assemblies\Microsoft\Framework\.NETFramework\v4.6\System.dll"
-r:"C:\Program Files (x86)\Reference Assemblies\Microsoft\Framework\.NETFramework\v4.6\System.Core.dll"
-r:"C:\Program Files (x86)\Reference Assemblies\Microsoft\Framework\.NETFramework\v4.6\System.Data.dll"
-r:"C:\Program Files (x86)\Reference Assemblies\Microsoft\Framework\.NETFramework\v4.6\System.Net.Http.dll"
-r:"C:\Program Files (x86)\Reference Assemblies\Microsoft\Framework\.NETFramework\v4.6\System.Security.dll"
-r:"C:\Program Files (x86)\Reference Assemblies\Microsoft\Framework\.NETFramework\v4.6\System.Xml.dll"
-r:"C:\Program Files (x86)\Reference Assemblies\Microsoft\Framework\.NETFramework\v4.6\System.Xml.Linq.dll"
-r:"C:\Program Files (x86)\Reference Assemblies\Microsoft\Framework\.NETFramework\v4.6\System.ComponentModel.DataAnnotations.dll"
-r:"C:\Program Files (x86)\Reference Assemblies\Microsoft\Framework\.NETFramework\v4.6\System.IO.Compression.dll"
-r:"C:\Program Files (x86)\Reference Assemblies\Microsoft\Framework\.NETFramework\v4.6\System.IO.Compression.FileSystem.dll"
-r:"C:\Program Files (x86)\Reference Assemblies\Microsoft\Framework\.NETFramework\v4.6\System.Runtime.Serialization.dll"
"C:\Development\Nikita\must4u\PlatformCore.Application.Common\ConnectionConfig.cs"
"C:\Development\Nikita\must4u\PlatformCore.Application.Common\BaseInputOutput\BaseEmptyOutput.cs"
"C:\Development\Nikita\must4u\PlatformCore.Application.Common\BaseInputOutput\BaseError.cs"
"C:\Development\Nikita\must4u\PlatformCore.Application.Common\BaseInputOutput\BaseForceInputById.cs"
"C:\Development\Nikita\must4u\PlatformCore.Application.Common\BaseInputOutput\BaseInput.cs"
"C:\Development\Nikita\must4u\PlatformCore.Application.Common\BaseInputOutput\BaseInputAndString.cs"
"C:\Development\Nikita\must4u\PlatformCore.Application.Common\BaseInputOutput\BaseInputById.cs"
"C:\Development\Nikita\must4u\PlatformCore.Application.Common\BaseInputOutput\BaseInputByListId.cs"
"C:\Development\Nikita\must4u\PlatformCore.Application.Common\BaseInputOutput\BaseOutput.cs"
"C:\Development\Nikita\must4u\PlatformCore.Application.Common\BaseInputOutput\CustomerBaseInput.cs"
"C:\Development\Nikita\must4u\PlatformCore.Application.Common\CodeError\CodeError.cs"
"C:\Development\Nikita\must4u\PlatformCore.Application.Common\CommonService\DateConvertor\DateConvertorServiceInternal.cs"
"C:\Development\Nikita\must4u\PlatformCore.Application.Common\CommonService\DateConvertor\IDateConvertorServiceInternal.cs"
"C:\Development\Nikita\must4u\PlatformCore.Application.Common\CommonService\EmailSender\EmailSenderServiceService.cs"
"C:\Development\Nikita\must4u\PlatformCore.Application.Common\CommonService\EmailSender\IEmailSenderService.cs"
"C:\Development\Nikita\must4u\PlatformCore.Application.Common\CommonService\EmailSender\Input\EmailInput.cs"
"C:\Development\Nikita\must4u\PlatformCore.Application.Common\CommonService\SessionService\ISessionService.cs"
"C:\Development\Nikita\must4u\PlatformCore.Application.Common\CommonService\SessionService\SessionService.cs"
"C:\Development\Nikita\must4u\PlatformCore.Application.Common\CustomController\ValidateController.cs"
"C:\Development\Nikita\must4u\PlatformCore.Application.Common\CustomFormat\CustomDateFormat.cs"
"C:\Development\Nikita\must4u\PlatformCore.Application.Common\Game\Application.Interface\IAuthService.cs"
"C:\Development\Nikita\must4u\PlatformCore.Application.Common\Game\Data\SessionData.cs"
"C:\Development\Nikita\must4u\PlatformCore.Application.Common\Game\Dto\AppRequestLoggingDto.cs"
"C:\Development\Nikita\must4u\PlatformCore.Application.Common\Game\Dto\AuthDatasDTO.cs"
"C:\Development\Nikita\must4u\PlatformCore.Application.Common\Game\Dto\AuthTypesDTO.cs"
"C:\Development\Nikita\must4u\PlatformCore.Application.Common\Game\Dto\CitiesDTO.cs"
"C:\Development\Nikita\must4u\PlatformCore.Application.Common\Game\Dto\CountriesDTO.cs"
"C:\Development\Nikita\must4u\PlatformCore.Application.Common\Game\Dto\MasterDayOfWeeksDTO.cs"
"C:\Development\Nikita\must4u\PlatformCore.Application.Common\Game\Dto\MasterDayOfYearsDTO.cs"
"C:\Development\Nikita\must4u\PlatformCore.Application.Common\Game\Dto\MasterScheduleDayOfWeeksDTO.cs"
"C:\Development\Nikita\must4u\PlatformCore.Application.Common\Game\Dto\MasterScheduleDayOfYearsDTO.cs"
"C:\Development\Nikita\must4u\PlatformCore.Application.Common\Game\Dto\MasterServicesDTO.cs"
"C:\Development\Nikita\must4u\PlatformCore.Application.Common\Game\Dto\Must4uTestTableDTO.cs"
"C:\Development\Nikita\must4u\PlatformCore.Application.Common\Game\Dto\ServicesTypeDTO.cs"
"C:\Development\Nikita\must4u\PlatformCore.Application.Common\Game\Dto\StationRegionsDTO.cs"
"C:\Development\Nikita\must4u\PlatformCore.Application.Common\Game\Dto\UsersDTO.cs"
"C:\Development\Nikita\must4u\PlatformCore.Application.Common\Game\Dto\UserSocialNetworksDTO.cs"
"C:\Development\Nikita\must4u\PlatformCore.Application.Common\Game\Enum\EnumAuthTypes.cs"
"C:\Development\Nikita\must4u\PlatformCore.Application.Common\Game\Enum\EnumUserTypes.cs"
"C:\Development\Nikita\must4u\PlatformCore.Application.Common\Game\GameTokenService\ITokenService.cs"
"C:\Development\Nikita\must4u\PlatformCore.Application.Common\Game\GameTokenService\TokenService.cs"
"C:\Development\Nikita\must4u\PlatformCore.Application.Common\Game\InputOutput\IRegistrationService\LoginInput.cs"
"C:\Development\Nikita\must4u\PlatformCore.Application.Common\Game\InputOutput\IRegistrationService\LoginOutput.cs"
"C:\Development\Nikita\must4u\PlatformCore.Application.Common\Game\InputOutput\IRegistrationService\RegisterInput.cs"
"C:\Development\Nikita\must4u\PlatformCore.Application.Common\Game\InputOutput\IRegistrationService\RegisterOutput.cs"
"C:\Development\Nikita\must4u\PlatformCore.Application.Common\GeneralLogging\CustomLogging.cs"
"C:\Development\Nikita\must4u\PlatformCore.Application.Common\GeneralLogging\CustomLoggingInput.cs"
"C:\Development\Nikita\must4u\PlatformCore.Application.Common\GeneralLogging\IAppRequestLoggingService.cs"
"C:\Development\Nikita\must4u\PlatformCore.Application.Common\GeneralLogging\ICustomLogging.cs"
"C:\Development\Nikita\must4u\PlatformCore.Application.Common\Middleware\AppRequestLoggingMiddleware.cs"
"C:\Development\Nikita\must4u\PlatformCore.Application.Common\Middleware\ExceptionMiddleware.cs"
"C:\Development\Nikita\must4u\PlatformCore.Application.Common\Middleware\LoggingMiddleware.cs"
"C:\Development\Nikita\must4u\PlatformCore.Application.Common\Middleware\ResponseMiddleware.cs"
"C:\Development\Nikita\must4u\PlatformCore.Application.Common\PlatformException\BaseException.cs"
"C:\Development\Nikita\must4u\PlatformCore.Application.Common\PlatformException\NoContentException.cs"
"C:\Development\Nikita\must4u\PlatformCore.Application.Common\Properties\AssemblyInfo.cs"
"C:\Development\Nikita\must4u\PlatformCore.Application.Common\RequestHelper\IRequestHelper.cs"
"C:\Development\Nikita\must4u\PlatformCore.Application.Common\RequestHelper\RequestHelper.cs"
