--temp-output:C:\Development\GoGaWi\PlatformCore\GameDAL\obj\Release\net46\
--out:C:\Development\GoGaWi\PlatformCore\GameDAL\bin\Release\net46\GameDAL.exe
--define:RELEASE
--define:TRACE
--define:NET46
--suppress-warning:CS1701
--suppress-warning:CS1702
--suppress-warning:CS1705
--platform:x64
--optimize:True
--emit-entry-point:True
--output-name:GameDAL
--file-version:1.0.0.0
--version:1.0.0.0
--informational-version:1.0.0
--target-framework:.NETFramework,Version=v4.6
--reference:C:\Users\Admin\.nuget\packages\AutoMapper\5.2.0\lib\net45\AutoMapper.dll
--reference:C:\Users\Admin\.nuget\packages\BouncyCastle\1.8.1\lib\BouncyCastle.Crypto.dll
--reference:C:\Users\Admin\.nuget\packages\MailKit\1.10.0\lib\net451\MailKit.dll
--reference:C:\Users\Admin\.nuget\packages\Microsoft.AspNet.WebApi.Client\5.2.3\lib\net45\System.Net.Http.Formatting.dll
--reference:C:\Users\Admin\.nuget\packages\Microsoft.AspNetCore.Antiforgery\1.0.1\lib\net451\Microsoft.AspNetCore.Antiforgery.dll
--reference:C:\Users\Admin\.nuget\packages\Microsoft.AspNetCore.Authorization\1.0.0\lib\net451\Microsoft.AspNetCore.Authorization.dll
--reference:C:\Users\Admin\.nuget\packages\Microsoft.AspNetCore.Cors\1.0.0\lib\net451\Microsoft.AspNetCore.Cors.dll
--reference:C:\Users\Admin\.nuget\packages\Microsoft.AspNetCore.Cryptography.Internal\1.0.0\lib\net451\Microsoft.AspNetCore.Cryptography.Internal.dll
--reference:C:\Users\Admin\.nuget\packages\Microsoft.AspNetCore.DataProtection\1.0.0\lib\net451\Microsoft.AspNetCore.DataProtection.dll
--reference:C:\Users\Admin\.nuget\packages\Microsoft.AspNetCore.DataProtection.Abstractions\1.0.0\lib\net451\Microsoft.AspNetCore.DataProtection.Abstractions.dll
--reference:C:\Users\Admin\.nuget\packages\Microsoft.AspNetCore.Diagnostics.Abstractions\1.0.0\lib\netstandard1.0\Microsoft.AspNetCore.Diagnostics.Abstractions.dll
--reference:C:\Users\Admin\.nuget\packages\Microsoft.AspNetCore.Hosting.Abstractions\1.0.0\lib\net451\Microsoft.AspNetCore.Hosting.Abstractions.dll
--reference:C:\Users\Admin\.nuget\packages\Microsoft.AspNetCore.Hosting.Server.Abstractions\1.0.0\lib\net451\Microsoft.AspNetCore.Hosting.Server.Abstractions.dll
--reference:C:\Users\Admin\.nuget\packages\Microsoft.AspNetCore.Html.Abstractions\1.0.0\lib\netstandard1.0\Microsoft.AspNetCore.Html.Abstractions.dll
--reference:C:\Users\Admin\.nuget\packages\Microsoft.AspNetCore.Http\1.1.0\lib\net451\Microsoft.AspNetCore.Http.dll
--reference:C:\Users\Admin\.nuget\packages\Microsoft.AspNetCore.Http.Abstractions\1.1.0\lib\net451\Microsoft.AspNetCore.Http.Abstractions.dll
--reference:C:\Users\Admin\.nuget\packages\Microsoft.AspNetCore.Http.Extensions\1.0.0\lib\net451\Microsoft.AspNetCore.Http.Extensions.dll
--reference:C:\Users\Admin\.nuget\packages\Microsoft.AspNetCore.Http.Features\1.1.0\lib\net451\Microsoft.AspNetCore.Http.Features.dll
--reference:C:\Users\Admin\.nuget\packages\Microsoft.AspNetCore.JsonPatch\1.0.0\lib\netstandard1.1\Microsoft.AspNetCore.JsonPatch.dll
--reference:C:\Users\Admin\.nuget\packages\Microsoft.AspNetCore.Localization\1.0.0\lib\net451\Microsoft.AspNetCore.Localization.dll
--reference:C:\Users\Admin\.nuget\packages\Microsoft.AspNetCore.Mvc\1.0.1\lib\net451\Microsoft.AspNetCore.Mvc.dll
--reference:C:\Users\Admin\.nuget\packages\Microsoft.AspNetCore.Mvc.Abstractions\1.0.1\lib\net451\Microsoft.AspNetCore.Mvc.Abstractions.dll
--reference:C:\Users\Admin\.nuget\packages\Microsoft.AspNetCore.Mvc.ApiExplorer\1.0.1\lib\net451\Microsoft.AspNetCore.Mvc.ApiExplorer.dll
--reference:C:\Users\Admin\.nuget\packages\Microsoft.AspNetCore.Mvc.Core\1.0.1\lib\net451\Microsoft.AspNetCore.Mvc.Core.dll
--reference:C:\Users\Admin\.nuget\packages\Microsoft.AspNetCore.Mvc.Cors\1.0.1\lib\net451\Microsoft.AspNetCore.Mvc.Cors.dll
--reference:C:\Users\Admin\.nuget\packages\Microsoft.AspNetCore.Mvc.DataAnnotations\1.0.1\lib\net451\Microsoft.AspNetCore.Mvc.DataAnnotations.dll
--reference:C:\Users\Admin\.nuget\packages\Microsoft.AspNetCore.Mvc.Formatters.Json\1.0.1\lib\net451\Microsoft.AspNetCore.Mvc.Formatters.Json.dll
--reference:C:\Users\Admin\.nuget\packages\Microsoft.AspNetCore.Mvc.Localization\1.0.1\lib\net451\Microsoft.AspNetCore.Mvc.Localization.dll
--reference:C:\Users\Admin\.nuget\packages\Microsoft.AspNetCore.Mvc.Razor\1.0.1\lib\net451\Microsoft.AspNetCore.Mvc.Razor.dll
--reference:C:\Users\Admin\.nuget\packages\Microsoft.AspNetCore.Mvc.Razor.Host\1.0.1\lib\net451\Microsoft.AspNetCore.Mvc.Razor.Host.dll
--reference:C:\Users\Admin\.nuget\packages\Microsoft.AspNetCore.Mvc.TagHelpers\1.0.1\lib\net451\Microsoft.AspNetCore.Mvc.TagHelpers.dll
--reference:C:\Users\Admin\.nuget\packages\Microsoft.AspNetCore.Mvc.ViewFeatures\1.0.1\lib\net451\Microsoft.AspNetCore.Mvc.ViewFeatures.dll
--reference:C:\Users\Admin\.nuget\packages\Microsoft.AspNetCore.Razor\1.0.0\lib\net451\Microsoft.AspNetCore.Razor.dll
--reference:C:\Users\Admin\.nuget\packages\Microsoft.AspNetCore.Razor.Runtime\1.0.0\lib\net451\Microsoft.AspNetCore.Razor.Runtime.dll
--reference:C:\Users\Admin\.nuget\packages\Microsoft.AspNetCore.Routing\1.0.0\lib\net451\Microsoft.AspNetCore.Routing.dll
--reference:C:\Users\Admin\.nuget\packages\Microsoft.AspNetCore.Routing.Abstractions\1.0.0\lib\net451\Microsoft.AspNetCore.Routing.Abstractions.dll
--reference:C:\Users\Admin\.nuget\packages\Microsoft.AspNetCore.WebUtilities\1.1.0\lib\net451\Microsoft.AspNetCore.WebUtilities.dll
--reference:C:\Users\Admin\.nuget\packages\Microsoft.CodeAnalysis.Common\1.3.0\lib\net45\Microsoft.CodeAnalysis.dll
--reference:C:\Users\Admin\.nuget\packages\Microsoft.CodeAnalysis.CSharp\1.3.0\lib\net45\Microsoft.CodeAnalysis.CSharp.dll
--reference:C:\Program Files (x86)\Reference Assemblies\Microsoft\Framework\.NETFramework\v4.6\Microsoft.CSharp.dll
--reference:C:\Users\Admin\.nuget\packages\Microsoft.DotNet.InternalAbstractions\1.0.0\lib\net451\Microsoft.DotNet.InternalAbstractions.dll
--reference:C:\Users\Admin\.nuget\packages\Microsoft.EntityFrameworkCore\1.0.0\lib\net451\Microsoft.EntityFrameworkCore.dll
--reference:C:\Users\Admin\.nuget\packages\Microsoft.EntityFrameworkCore.Design.Core\1.0.0-preview2-final\lib\net451\Microsoft.EntityFrameworkCore.Design.Core.dll
--reference:C:\Users\Admin\.nuget\packages\Microsoft.EntityFrameworkCore.Relational\1.0.0\lib\net451\Microsoft.EntityFrameworkCore.Relational.dll
--reference:C:\Users\Admin\.nuget\packages\Microsoft.EntityFrameworkCore.Relational.Design\1.0.0\lib\net451\Microsoft.EntityFrameworkCore.Relational.Design.dll
--reference:C:\Users\Admin\.nuget\packages\Microsoft.EntityFrameworkCore.SqlServer\1.0.0\lib\net451\Microsoft.EntityFrameworkCore.SqlServer.dll
--reference:C:\Users\Admin\.nuget\packages\Microsoft.EntityFrameworkCore.SqlServer.Design\1.0.0\lib\net451\Microsoft.EntityFrameworkCore.SqlServer.Design.dll
--reference:C:\Users\Admin\.nuget\packages\Microsoft.EntityFrameworkCore.Tools\1.0.0-preview2-final\lib\net451\Microsoft.EntityFrameworkCore.Tools.dll
--reference:C:\Users\Admin\.nuget\packages\Microsoft.Extensions.Caching.Abstractions\1.0.0\lib\netstandard1.0\Microsoft.Extensions.Caching.Abstractions.dll
--reference:C:\Users\Admin\.nuget\packages\Microsoft.Extensions.Caching.Memory\1.0.0\lib\net451\Microsoft.Extensions.Caching.Memory.dll
--reference:C:\Users\Admin\.nuget\packages\Microsoft.Extensions.Caching.Redis.Core\1.0.3\lib\net451\Microsoft.Extensions.Caching.Redis.dll
--reference:C:\Users\Admin\.nuget\packages\Microsoft.Extensions.CommandLineUtils\1.0.0\lib\net451\Microsoft.Extensions.CommandLineUtils.dll
--reference:C:\Users\Admin\.nuget\packages\Microsoft.Extensions.Configuration.Abstractions\1.0.0\lib\netstandard1.0\Microsoft.Extensions.Configuration.Abstractions.dll
--reference:C:\Users\Admin\.nuget\packages\Microsoft.Extensions.DependencyInjection\1.0.0\lib\netstandard1.1\Microsoft.Extensions.DependencyInjection.dll
--reference:C:\Users\Admin\.nuget\packages\Microsoft.Extensions.DependencyInjection.Abstractions\1.1.0\lib\netstandard1.0\Microsoft.Extensions.DependencyInjection.Abstractions.dll
--reference:C:\Users\Admin\.nuget\packages\Microsoft.Extensions.DependencyModel\1.0.0\lib\net451\Microsoft.Extensions.DependencyModel.dll
--reference:C:\Users\Admin\.nuget\packages\Microsoft.Extensions.FileProviders.Abstractions\1.0.0\lib\netstandard1.0\Microsoft.Extensions.FileProviders.Abstractions.dll
--reference:C:\Users\Admin\.nuget\packages\Microsoft.Extensions.FileProviders.Composite\1.0.0\lib\netstandard1.0\Microsoft.Extensions.FileProviders.Composite.dll
--reference:C:\Users\Admin\.nuget\packages\Microsoft.Extensions.FileProviders.Physical\1.0.0\lib\net451\Microsoft.Extensions.FileProviders.Physical.dll
--reference:C:\Users\Admin\.nuget\packages\Microsoft.Extensions.FileSystemGlobbing\1.0.0\lib\net451\Microsoft.Extensions.FileSystemGlobbing.dll
--reference:C:\Users\Admin\.nuget\packages\Microsoft.Extensions.Globalization.CultureInfoCache\1.0.0\lib\netstandard1.1\Microsoft.Extensions.Globalization.CultureInfoCache.dll
--reference:C:\Users\Admin\.nuget\packages\Microsoft.Extensions.Localization\1.0.0\lib\net451\Microsoft.Extensions.Localization.dll
--reference:C:\Users\Admin\.nuget\packages\Microsoft.Extensions.Localization.Abstractions\1.0.0\lib\netstandard1.0\Microsoft.Extensions.Localization.Abstractions.dll
--reference:C:\Users\Admin\.nuget\packages\Microsoft.Extensions.Logging\1.0.0\lib\netstandard1.1\Microsoft.Extensions.Logging.dll
--reference:C:\Users\Admin\.nuget\packages\Microsoft.Extensions.Logging.Abstractions\1.0.0\lib\netstandard1.1\Microsoft.Extensions.Logging.Abstractions.dll
--reference:C:\Users\Admin\.nuget\packages\Microsoft.Extensions.ObjectPool\1.1.0\lib\net451\Microsoft.Extensions.ObjectPool.dll
--reference:C:\Users\Admin\.nuget\packages\Microsoft.Extensions.Options\1.1.0\lib\netstandard1.0\Microsoft.Extensions.Options.dll
--reference:C:\Users\Admin\.nuget\packages\Microsoft.Extensions.PlatformAbstractions\1.0.0\lib\net451\Microsoft.Extensions.PlatformAbstractions.dll
--reference:C:\Users\Admin\.nuget\packages\Microsoft.Extensions.Primitives\1.1.0\lib\netstandard1.0\Microsoft.Extensions.Primitives.dll
--reference:C:\Users\Admin\.nuget\packages\Microsoft.Extensions.WebEncoders\1.0.0\lib\netstandard1.0\Microsoft.Extensions.WebEncoders.dll
--reference:C:\Users\Admin\.nuget\packages\Microsoft.Net.Http.Headers\1.1.0\lib\netstandard1.1\Microsoft.Net.Http.Headers.dll
--reference:C:\Users\Admin\.nuget\packages\Microsoft.Win32.Primitives\4.0.1\ref\net46\Microsoft.Win32.Primitives.dll
--reference:C:\Users\Admin\.nuget\packages\MimeKit\1.10.0\lib\net451\MimeKit.dll
--reference:C:\Users\Admin\.nuget\packages\Newtonsoft.Json\9.0.1\lib\net45\Newtonsoft.Json.dll
--reference:C:\Users\Admin\.nuget\packages\Remotion.Linq\2.1.1\lib\net45\Remotion.Linq.dll
--reference:C:\Users\Admin\.nuget\packages\StackExchange.Redis.StrongName\1.1.608\lib\net46\StackExchange.Redis.StrongName.dll
--reference:C:\Users\Admin\.nuget\packages\System.AppContext\4.1.0\ref\net46\System.AppContext.dll
--reference:C:\Users\Admin\.nuget\packages\System.Buffers\4.3.0\lib\netstandard1.1\System.Buffers.dll
--reference:C:\Program Files (x86)\Reference Assemblies\Microsoft\Framework\.NETFramework\v4.6\Facades\System.Collections.dll
--reference:C:\Program Files (x86)\Reference Assemblies\Microsoft\Framework\.NETFramework\v4.6\Facades\System.Collections.Concurrent.dll
--reference:C:\Users\Admin\.nuget\packages\System.Collections.Immutable\1.2.0\lib\portable-net45+win8+wp8+wpa81\System.Collections.Immutable.dll
--reference:C:\Program Files (x86)\Reference Assemblies\Microsoft\Framework\.NETFramework\v4.6\Facades\System.ComponentModel.dll
--reference:C:\Users\Admin\.nuget\packages\System.ComponentModel.Primitives\4.1.0\ref\net45\System.ComponentModel.Primitives.dll
--reference:C:\Users\Admin\.nuget\packages\System.ComponentModel.TypeConverter\4.1.0\ref\net45\System.ComponentModel.TypeConverter.dll
--reference:C:\Users\Admin\.nuget\packages\System.Console\4.0.0\ref\net46\System.Console.dll
--reference:C:\Program Files (x86)\Reference Assemblies\Microsoft\Framework\.NETFramework\v4.6\Facades\System.Diagnostics.Contracts.dll
--reference:C:\Program Files (x86)\Reference Assemblies\Microsoft\Framework\.NETFramework\v4.6\Facades\System.Diagnostics.Debug.dll
--reference:C:\Users\Admin\.nuget\packages\System.Diagnostics.DiagnosticSource\4.0.0\lib\net46\System.Diagnostics.DiagnosticSource.dll
--reference:C:\Program Files (x86)\Reference Assemblies\Microsoft\Framework\.NETFramework\v4.6\Facades\System.Diagnostics.Tools.dll
--reference:C:\Program Files (x86)\Reference Assemblies\Microsoft\Framework\.NETFramework\v4.6\Facades\System.Diagnostics.Tracing.dll
--reference:C:\Program Files (x86)\Reference Assemblies\Microsoft\Framework\.NETFramework\v4.6\Facades\System.Dynamic.Runtime.dll
--reference:C:\Program Files (x86)\Reference Assemblies\Microsoft\Framework\.NETFramework\v4.6\Facades\System.Globalization.dll
--reference:C:\Users\Admin\.nuget\packages\System.Globalization.Calendars\4.0.1\ref\net46\System.Globalization.Calendars.dll
--reference:C:\Users\Admin\.nuget\packages\System.Interactive.Async\3.0.0\lib\net45\System.Interactive.Async.dll
--reference:C:\Program Files (x86)\Reference Assemblies\Microsoft\Framework\.NETFramework\v4.6\Facades\System.IO.dll
--reference:C:\Users\Admin\.nuget\packages\System.IO.Compression.ZipFile\4.0.1\ref\net46\System.IO.Compression.ZipFile.dll
--reference:C:\Users\Admin\.nuget\packages\System.IO.FileSystem\4.0.1\ref\net46\System.IO.FileSystem.dll
--reference:C:\Users\Admin\.nuget\packages\System.IO.FileSystem.Primitives\4.0.1\ref\net46\System.IO.FileSystem.Primitives.dll
--reference:C:\Program Files (x86)\Reference Assemblies\Microsoft\Framework\.NETFramework\v4.6\Facades\System.Linq.dll
--reference:C:\Program Files (x86)\Reference Assemblies\Microsoft\Framework\.NETFramework\v4.6\Facades\System.Linq.Expressions.dll
--reference:C:\Program Files (x86)\Reference Assemblies\Microsoft\Framework\.NETFramework\v4.6\Facades\System.Linq.Queryable.dll
--reference:C:\Program Files (x86)\Reference Assemblies\Microsoft\Framework\.NETFramework\v4.6\Facades\System.Net.Primitives.dll
--reference:C:\Users\Admin\.nuget\packages\System.Net.Sockets\4.1.0\ref\net46\System.Net.Sockets.dll
--reference:C:\Program Files (x86)\Reference Assemblies\Microsoft\Framework\.NETFramework\v4.6\Facades\System.ObjectModel.dll
--reference:C:\Program Files (x86)\Reference Assemblies\Microsoft\Framework\.NETFramework\v4.6\Facades\System.Reflection.dll
--reference:C:\Program Files (x86)\Reference Assemblies\Microsoft\Framework\.NETFramework\v4.6\Facades\System.Reflection.Extensions.dll
--reference:C:\Users\Admin\.nuget\packages\System.Reflection.Metadata\1.3.0\lib\portable-net45+win8\System.Reflection.Metadata.dll
--reference:C:\Program Files (x86)\Reference Assemblies\Microsoft\Framework\.NETFramework\v4.6\Facades\System.Reflection.Primitives.dll
--reference:C:\Program Files (x86)\Reference Assemblies\Microsoft\Framework\.NETFramework\v4.6\Facades\System.Resources.ResourceManager.dll
--reference:C:\Program Files (x86)\Reference Assemblies\Microsoft\Framework\.NETFramework\v4.6\Facades\System.Runtime.dll
--reference:C:\Users\Admin\.nuget\packages\System.Runtime.CompilerServices.Unsafe\4.3.0\lib\netstandard1.0\System.Runtime.CompilerServices.Unsafe.dll
--reference:C:\Program Files (x86)\Reference Assemblies\Microsoft\Framework\.NETFramework\v4.6\Facades\System.Runtime.Extensions.dll
--reference:C:\Program Files (x86)\Reference Assemblies\Microsoft\Framework\.NETFramework\v4.6\Facades\System.Runtime.Handles.dll
--reference:C:\Program Files (x86)\Reference Assemblies\Microsoft\Framework\.NETFramework\v4.6\Facades\System.Runtime.InteropServices.dll
--reference:C:\Users\Admin\.nuget\packages\System.Runtime.InteropServices.RuntimeInformation\4.0.0\ref\netstandard1.1\System.Runtime.InteropServices.RuntimeInformation.dll
--reference:C:\Program Files (x86)\Reference Assemblies\Microsoft\Framework\.NETFramework\v4.6\Facades\System.Runtime.Numerics.dll
--reference:C:\Users\Admin\.nuget\packages\System.Runtime.Serialization.Primitives\4.1.1\ref\net46\System.Runtime.Serialization.Primitives.dll
--reference:C:\Users\Admin\.nuget\packages\System.Security.Cryptography.Algorithms\4.2.0\ref\net46\System.Security.Cryptography.Algorithms.dll
--reference:C:\Users\Admin\.nuget\packages\System.Security.Cryptography.Encoding\4.0.0\ref\net46\System.Security.Cryptography.Encoding.dll
--reference:C:\Users\Admin\.nuget\packages\System.Security.Cryptography.Primitives\4.0.0\ref\net46\System.Security.Cryptography.Primitives.dll
--reference:C:\Users\Admin\.nuget\packages\System.Security.Cryptography.X509Certificates\4.1.0\ref\net46\System.Security.Cryptography.X509Certificates.dll
--reference:C:\Program Files (x86)\Reference Assemblies\Microsoft\Framework\.NETFramework\v4.6\Facades\System.Text.Encoding.dll
--reference:C:\Program Files (x86)\Reference Assemblies\Microsoft\Framework\.NETFramework\v4.6\Facades\System.Text.Encoding.Extensions.dll
--reference:C:\Users\Admin\.nuget\packages\System.Text.Encodings.Web\4.3.0\lib\netstandard1.0\System.Text.Encodings.Web.dll
--reference:C:\Program Files (x86)\Reference Assemblies\Microsoft\Framework\.NETFramework\v4.6\Facades\System.Text.RegularExpressions.dll
--reference:C:\Program Files (x86)\Reference Assemblies\Microsoft\Framework\.NETFramework\v4.6\Facades\System.Threading.dll
--reference:C:\Program Files (x86)\Reference Assemblies\Microsoft\Framework\.NETFramework\v4.6\Facades\System.Threading.Tasks.dll
--reference:C:\Program Files (x86)\Reference Assemblies\Microsoft\Framework\.NETFramework\v4.6\Facades\System.Threading.Tasks.Parallel.dll
--reference:C:\Program Files (x86)\Reference Assemblies\Microsoft\Framework\.NETFramework\v4.6\Facades\System.Threading.Timer.dll
--reference:C:\Program Files (x86)\Reference Assemblies\Microsoft\Framework\.NETFramework\v4.6\Facades\System.Xml.ReaderWriter.dll
--reference:C:\Program Files (x86)\Reference Assemblies\Microsoft\Framework\.NETFramework\v4.6\Facades\System.Xml.XDocument.dll
--reference:C:\Development\GoGaWi\PlatformCore\PlatformCore.Application.Common\bin\Release\net46\PlatformCore.Application.Common.dll
--reference:C:\Development\GoGaWi\PlatformCore\PlatformCore.DAL.Common\bin\Release\net46\PlatformCore.DAL.Common.dll
--reference:C:\Program Files (x86)\Reference Assemblies\Microsoft\Framework\.NETFramework\v4.6\mscorlib.dll
--reference:C:\Program Files (x86)\Reference Assemblies\Microsoft\Framework\.NETFramework\v4.6\System.dll
--reference:C:\Program Files (x86)\Reference Assemblies\Microsoft\Framework\.NETFramework\v4.6\System.Core.dll
--reference:C:\Program Files (x86)\Reference Assemblies\Microsoft\Framework\.NETFramework\v4.6\System.Data.dll
--reference:C:\Program Files (x86)\Reference Assemblies\Microsoft\Framework\.NETFramework\v4.6\System.Net.Http.dll
--reference:C:\Program Files (x86)\Reference Assemblies\Microsoft\Framework\.NETFramework\v4.6\System.Security.dll
--reference:C:\Program Files (x86)\Reference Assemblies\Microsoft\Framework\.NETFramework\v4.6\System.Xml.dll
--reference:C:\Program Files (x86)\Reference Assemblies\Microsoft\Framework\.NETFramework\v4.6\System.Xml.Linq.dll
--reference:C:\Program Files (x86)\Reference Assemblies\Microsoft\Framework\.NETFramework\v4.6\System.ComponentModel.DataAnnotations.dll
--reference:C:\Program Files (x86)\Reference Assemblies\Microsoft\Framework\.NETFramework\v4.6\System.Transactions.dll
--reference:C:\Program Files (x86)\Reference Assemblies\Microsoft\Framework\.NETFramework\v4.6\System.IO.Compression.dll
--reference:C:\Program Files (x86)\Reference Assemblies\Microsoft\Framework\.NETFramework\v4.6\System.IO.Compression.FileSystem.dll
--reference:C:\Program Files (x86)\Reference Assemblies\Microsoft\Framework\.NETFramework\v4.6\System.Runtime.Serialization.dll
C:\Development\GoGaWi\PlatformCore\GameDAL\Program.cs
C:\Development\GoGaWi\PlatformCore\GameDAL\RepositoryArticles.cs
C:\Development\GoGaWi\PlatformCore\GameDAL\IRepositoryGoGaWi\IRepositoryGoGaWiTable.cs
C:\Development\GoGaWi\PlatformCore\GameDAL\IRepositoryGoGaWi\IRepositoryUsers.cs
C:\Development\GoGaWi\PlatformCore\GameDAL\Models\GoGaWiContext.cs
C:\Development\GoGaWi\PlatformCore\GameDAL\Models\GoGawiTable.cs
C:\Development\GoGaWi\PlatformCore\GameDAL\Models\Users.cs
C:\Development\GoGaWi\PlatformCore\GameDAL\Properties\AssemblyInfo.cs
C:\Development\GoGaWi\PlatformCore\GameDAL\RepositoryGoGaWi\RepositoryGoGaWiTable.cs
C:\Development\GoGaWi\PlatformCore\GameDAL\RepositoryGoGaWi\RepositoryUsers.cs
