{
  "version": "1.0.0-*",

  "dependencies": {
    "AutoMapper": "5.2.0",
    "Microsoft.EntityFrameworkCore.SqlServer": "1.0.0",
    "Microsoft.EntityFrameworkCore.SqlServer.Design": "1.0.0",
    "Microsoft.EntityFrameworkCore.Tools": "1.0.0-preview2-final",
    "NETStandard.Library": "1.6.0",
    "PlatformCore.Application.Common": "1.0.0-*"
  },
  "tools": {
    "Microsoft.EntityFrameworkCore.Tools": "1.0.0-preview2-final"
  },

  "buildOptions": {
    "emitEntryPoint": true
  },

  "frameworks": {
    "net46": {
    },
    "netcoreapp1.0": {
      "dependencies": {
        "Microsoft.NETCore.App": {
          "type": "platform",
          "version": "1.0.0-*"
        }
      }
    }
  }
}